1 ano/2 semestre/LSD/aula 3/parte 4/simulation/qsim/ALUDemo.msim.vcd
$comment
	File created using the following command:
		vcd file ALUDemo.msim.vcd -direction
$end
$date
	Tue Mar 15 19:42:39 2016
$end
$version
	ModelSim Version 10.4b
$end
$timescale
	1ps
$end

$scope module Bin2BCD_vlg_vec_tst $end
$var reg 4 ! binInput [3:0] $end
$var wire 1 " output0 [3] $end
$var wire 1 # output0 [2] $end
$var wire 1 $ output0 [1] $end
$var wire 1 % output0 [0] $end
$var wire 1 & output1 [3] $end
$var wire 1 ' output1 [2] $end
$var wire 1 ( output1 [1] $end
$var wire 1 ) output1 [0] $end

$scope module i1 $end
$var wire 1 * gnd $end
$var wire 1 + vcc $end
$var wire 1 , unknown $end
$var tri1 1 - devclrn $end
$var tri1 1 . devpor $end
$var tri1 1 / devoe $end
$var wire 1 0 output0[0]~output_o $end
$var wire 1 1 output0[1]~output_o $end
$var wire 1 2 output0[2]~output_o $end
$var wire 1 3 output0[3]~output_o $end
$var wire 1 4 output1[0]~output_o $end
$var wire 1 5 output1[1]~output_o $end
$var wire 1 6 output1[2]~output_o $end
$var wire 1 7 output1[3]~output_o $end
$var wire 1 8 binInput[0]~input_o $end
$var wire 1 9 binInput[2]~input_o $end
$var wire 1 : binInput[1]~input_o $end
$var wire 1 ; binInput[3]~input_o $end
$var wire 1 < s_output0[1]~0_combout $end
$var wire 1 = s_output0[2]~1_combout $end
$var wire 1 > s_output0[3]~2_combout $end
$var wire 1 ? LessThan0~0_combout $end
$upscope $end
$upscope $end
$enddefinitions $end
#0
$dumpvars
b101 !
1%
0$
1#
0"
0)
0(
0'
0&
0*
1+
x,
1-
1.
1/
10
01
12
03
04
05
06
07
18
19
0:
0;
0<
1=
0>
0?
$end
#100000
b1101 !
b1001 !
b1011 !
b1010 !
1:
09
1;
08
00
0%
1?
0=
02
14
1)
0#
#200000
b1011 !
18
10
1%
#300000
b11 !
b111 !
b101 !
0:
19
0;
0?
1=
12
04
0)
1#
#400000
b111 !
1:
1<
11
1$
#500000
b110 !
b10 !
09
08
00
0%
0=
02
0#
#600000
b0 !
b1 !
0:
18
10
1%
0<
01
0$
#700000
b101 !
b100 !
19
08
00
0%
1=
12
1#
#800000
b1100 !
b1110 !
b1010 !
b1011 !
1:
09
1;
18
10
1%
1?
0=
02
14
1)
0#
#900000
b11 !
b10 !
0;
08
00
0%
0?
1<
11
04
0)
1$
