1 ano/2 semestre/LSD/aula 2/parte 4/simulation/qsim/PEnc4_2Demo.msim.vcd
$comment
	File created using the following command:
		vcd file PEnc4_2Demo.msim.vcd -direction
$end
$date
	Sat Feb 24 11:37:58 2018
$end
$version
	ModelSim Version 10.5b
$end
$timescale
	1ps
$end

$scope module penc4_2_vhd_vec_tst $end
$var wire 1 ! datain [3] $end
$var wire 1 " datain [2] $end
$var wire 1 # datain [1] $end
$var wire 1 $ datain [0] $end
$var wire 1 % dataout [1] $end
$var wire 1 & dataout [0] $end

$scope module i1 $end
$var wire 1 ' gnd $end
$var wire 1 ( vcc $end
$var wire 1 ) unknown $end
$var wire 1 * devoe $end
$var wire 1 + devclrn $end
$var wire 1 , devpor $end
$var wire 1 - ww_devoe $end
$var wire 1 . ww_devclrn $end
$var wire 1 / ww_devpor $end
$var wire 1 0 ww_datain [3] $end
$var wire 1 1 ww_datain [2] $end
$var wire 1 2 ww_datain [1] $end
$var wire 1 3 ww_datain [0] $end
$var wire 1 4 ww_dataout [1] $end
$var wire 1 5 ww_dataout [0] $end
$var wire 1 6 \dataout[0]~output_o\ $end
$var wire 1 7 \dataout[1]~output_o\ $end
$var wire 1 8 \datain[3]~input_o\ $end
$var wire 1 9 \datain[0]~input_o\ $end
$var wire 1 : \datain[2]~input_o\ $end
$var wire 1 ; \datain[1]~input_o\ $end
$var wire 1 < \comb~0_combout\ $end
$var wire 1 = \comb~1_combout\ $end
$var wire 1 > \dataout[0]$latch~combout\ $end
$var wire 1 ? \dataout[1]~0_combout\ $end
$var wire 1 @ \comb~2_combout\ $end
$var wire 1 A \dataout[1]$latch~combout\ $end
$upscope $end
$upscope $end
$enddefinitions $end
#0
$dumpvars
0'
1(
x)
1*
1+
1,
1-
1.
1/
x6
x7
08
09
0:
0;
0<
1=
x>
1?
0@
xA
0!
0"
0#
0$
x%
x&
00
01
02
03
x4
x5
$end
#5000
1$
13
19
1<
1@
0A
0>
06
07
05
04
0&
0%
#10000
0$
1#
03
12
1;
09
0<
0=
1>
16
15
1&
#15000
1$
1"
13
11
1:
19
1<
1=
0?
0@
1A
0>
06
17
05
14
0&
1%
#20000
0$
0#
1!
03
02
10
18
0;
09
0<
0=
1>
16
15
1&
#25000
1$
13
19
#30000
0$
1#
0"
03
12
01
0:
1;
09
#35000
1$
13
19
#40000
0$
0#
0!
03
02
00
08
0;
09
1=
1?
#45000
1$
1"
13
11
1:
19
1<
0?
0>
06
05
0&
#50000
0$
1#
03
12
1;
09
#55000
1$
13
19
#60000
0$
0#
0"
1!
03
02
01
10
18
0:
0;
09
0<
0=
1>
16
15
1&
#65000
1$
13
19
#70000
0$
1#
03
12
1;
09
#75000
1$
1"
13
11
1:
19
#80000
0$
0#
0!
03
02
00
08
0;
09
1<
1=
0>
06
05
0&
#85000
1$
13
19
#90000
0$
1#
0"
03
12
01
0:
1;
09
0<
0=
1?
1@
0A
1>
16
07
15
04
1&
0%
#95000
1$
13
19
#100000
0$
0#
1!
03
02
10
18
0;
09
0?
0@
1A
17
14
1%
#105000
1$
1"
13
11
1:
19
#110000
0$
1#
03
12
1;
09
#115000
1$
13
19
#120000
0$
0#
0"
0!
03
02
01
00
08
0:
0;
09
1=
1?
#125000
1$
13
19
1<
1@
0A
0>
06
07
05
04
0&
0%
#130000
0$
1#
03
12
1;
09
0<
0=
1>
16
15
1&
#135000
1$
1"
13
11
1:
19
1<
1=
0?
0@
1A
0>
06
17
05
14
0&
1%
#140000
0$
0#
1!
03
02
10
18
0;
09
0<
0=
1>
16
15
1&
#145000
1$
13
19
#150000
0$
1#
0"
03
12
01
0:
1;
09
#155000
1$
13
19
#160000
0$
0#
0!
03
02
00
08
0;
09
1=
1?
#165000
1$
1"
13
11
1:
19
1<
0?
0>
06
05
0&
#170000
0$
1#
03
12
1;
09
#175000
1$
13
19
#180000
0$
0#
0"
1!
03
02
01
10
18
0:
0;
09
0<
0=
1>
16
15
1&
#185000
1$
13
19
#190000
0$
1#
03
12
1;
09
#195000
1$
1"
13
11
1:
19
#200000
0$
0#
0!
03
02
00
08
0;
09
1<
1=
0>
06
05
0&
#205000
1$
13
19
#210000
0$
1#
0"
03
12
01
0:
1;
09
0<
0=
1?
1@
0A
1>
16
07
15
04
1&
0%
#215000
1$
13
19
#220000
0$
0#
1!
03
02
10
18
0;
09
0?
0@
1A
17
14
1%
#225000
1$
1"
13
11
1:
19
#230000
0$
1#
03
12
1;
09
#235000
1$
13
19
#240000
0$
0#
0"
0!
03
02
01
00
08
0:
0;
09
1=
1?
#245000
1$
13
19
1<
1@
0A
0>
06
07
05
04
0&
0%
#250000
0$
1#
03
12
1;
09
0<
0=
1>
16
15
1&
#255000
1$
1"
13
11
1:
19
1<
1=
0?
0@
1A
0>
06
17
05
14
0&
1%
#260000
0$
0#
1!
03
02
10
18
0;
09
0<
0=
1>
16
15
1&
#265000
1$
13
19
#270000
0$
1#
0"
03
12
01
0:
1;
09
#275000
1$
13
19
#280000
0$
0#
0!
03
02
00
08
0;
09
1=
1?
#285000
1$
1"
13
11
1:
19
1<
0?
0>
06
05
0&
#290000
0$
1#
03
12
1;
09
#295000
1$
13
19
#300000
0$
0#
0"
1!
03
02
01
10
18
0:
0;
09
0<
0=
1>
16
15
1&
#305000
1$
13
19
#310000
0$
1#
03
12
1;
09
#315000
1$
1"
13
11
1:
19
#320000
0$
0#
0!
03
02
00
08
0;
09
1<
1=
0>
06
05
0&
#325000
1$
13
19
#330000
0$
1#
0"
03
12
01
0:
1;
09
0<
0=
1?
1@
0A
1>
16
07
15
04
1&
0%
#335000
1$
13
19
#340000
0$
0#
1!
03
02
10
18
0;
09
0?
0@
1A
17
14
1%
#345000
1$
1"
13
11
1:
19
#350000
0$
1#
03
12
1;
09
#355000
1$
13
19
#360000
0$
0#
0"
0!
03
02
01
00
08
0:
0;
09
1=
1?
#365000
1$
13
19
1<
1@
0A
0>
06
07
05
04
0&
0%
#370000
0$
1#
03
12
1;
09
0<
0=
1>
16
15
1&
#375000
1$
1"
13
11
1:
19
1<
1=
0?
0@
1A
0>
06
17
05
14
0&
1%
#380000
0$
0#
1!
03
02
10
18
0;
09
0<
0=
1>
16
15
1&
#385000
1$
13
19
#390000
0$
1#
0"
03
12
01
0:
1;
09
#395000
1$
13
19
#400000
0$
0#
0!
03
02
00
08
0;
09
1=
1?
#405000
1$
1"
13
11
1:
19
1<
0?
0>
06
05
0&
#410000
0$
1#
03
12
1;
09
#415000
1$
13
19
#420000
0$
0#
0"
1!
03
02
01
10
18
0:
0;
09
0<
0=
1>
16
15
1&
#425000
1$
13
19
#430000
0$
1#
03
12
1;
09
#435000
1$
1"
13
11
1:
19
#440000
0$
0#
0!
03
02
00
08
0;
09
1<
1=
0>
06
05
0&
#445000
1$
13
19
#450000
0$
1#
0"
03
12
01
0:
1;
09
0<
0=
1?
1@
0A
1>
16
07
15
04
1&
0%
#455000
1$
13
19
#460000
0$
0#
1!
03
02
10
18
0;
09
0?
0@
1A
17
14
1%
#465000
1$
1"
13
11
1:
19
#470000
0$
1#
03
12
1;
09
#475000
1$
13
19
#480000
0$
0#
0"
0!
03
02
01
00
08
0:
0;
09
1=
1?
#485000
1$
13
19
1<
1@
0A
0>
06
07
05
04
0&
0%
#490000
0$
1#
03
12
1;
09
0<
0=
1>
16
15
1&
#495000
1$
1"
13
11
1:
19
1<
1=
0?
0@
1A
0>
06
17
05
14
0&
1%
#500000
0$
0#
1!
03
02
10
18
0;
09
0<
0=
1>
16
15
1&
#505000
1$
13
19
#510000
0$
1#
0"
03
12
01
0:
1;
09
#515000
1$
13
19
#520000
0$
0#
0!
03
02
00
08
0;
09
1=
1?
#525000
1$
1"
13
11
1:
19
1<
0?
0>
06
05
0&
#530000
0$
1#
03
12
1;
09
#535000
1$
13
19
#540000
0$
0#
0"
1!
03
02
01
10
18
0:
0;
09
0<
0=
1>
16
15
1&
#545000
1$
13
19
#550000
0$
1#
03
12
1;
09
#555000
1$
1"
13
11
1:
19
#560000
0$
0#
0!
03
02
00
08
0;
09
1<
1=
0>
06
05
0&
#565000
1$
13
19
#570000
0$
1#
0"
03
12
01
0:
1;
09
0<
0=
1?
1@
0A
1>
16
07
15
04
1&
0%
#575000
1$
13
19
#580000
0$
0#
1!
03
02
10
18
0;
09
0?
0@
1A
17
14
1%
#585000
1$
1"
13
11
1:
19
#590000
0$
1#
03
12
1;
09
#595000
1$
13
19
#600000
0$
0#
0"
0!
03
02
01
00
08
0:
0;
09
1=
1?
#605000
1$
13
19
1<
1@
0A
0>
06
07
05
04
0&
0%
#610000
0$
1#
03
12
1;
09
0<
0=
1>
16
15
1&
#615000
1$
1"
13
11
1:
19
1<
1=
0?
0@
1A
0>
06
17
05
14
0&
1%
#620000
0$
0#
1!
03
02
10
18
0;
09
0<
0=
1>
16
15
1&
#625000
1$
13
19
#630000
0$
1#
0"
03
12
01
0:
1;
09
#635000
1$
13
19
#640000
0$
0#
0!
03
02
00
08
0;
09
1=
1?
#645000
1$
1"
13
11
1:
19
1<
0?
0>
06
05
0&
#650000
0$
1#
03
12
1;
09
#655000
1$
13
19
#660000
0$
0#
0"
1!
03
02
01
10
18
0:
0;
09
0<
0=
1>
16
15
1&
#665000
1$
13
19
#670000
0$
1#
03
12
1;
09
#675000
1$
1"
13
11
1:
19
#680000
0$
0#
0!
03
02
00
08
0;
09
1<
1=
0>
06
05
0&
#685000
1$
13
19
#690000
0$
1#
0"
03
12
01
0:
1;
09
0<
0=
1?
1@
0A
1>
16
07
15
04
1&
0%
#695000
1$
13
19
#700000
0$
0#
1!
03
02
10
18
0;
09
0?
0@
1A
17
14
1%
#705000
1$
1"
13
11
1:
19
#710000
0$
1#
03
12
1;
09
#715000
1$
13
19
#720000
0$
0#
0"
0!
03
02
01
00
08
0:
0;
09
1=
1?
#725000
1$
13
19
1<
1@
0A
0>
06
07
05
04
0&
0%
#730000
0$
1#
03
12
1;
09
0<
0=
1>
16
15
1&
#735000
1$
1"
13
11
1:
19
1<
1=
0?
0@
1A
0>
06
17
05
14
0&
1%
#740000
0$
0#
1!
03
02
10
18
0;
09
0<
0=
1>
16
15
1&
#745000
1$
13
19
#750000
0$
1#
0"
03
12
01
0:
1;
09
#755000
1$
13
19
#760000
0$
0#
0!
03
02
00
08
0;
09
1=
1?
#765000
1$
1"
13
11
1:
19
1<
0?
0>
06
05
0&
#770000
0$
1#
03
12
1;
09
#775000
1$
13
19
#780000
0$
0#
0"
1!
03
02
01
10
18
0:
0;
09
0<
0=
1>
16
15
1&
#785000
1$
13
19
#790000
0$
1#
03
12
1;
09
#795000
1$
1"
13
11
1:
19
#800000
0$
0#
0!
03
02
00
08
0;
09
1<
1=
0>
06
05
0&
#805000
1$
13
19
#810000
0$
1#
0"
03
12
01
0:
1;
09
0<
0=
1?
1@
0A
1>
16
07
15
04
1&
0%
#815000
1$
13
19
#820000
0$
0#
1!
03
02
10
18
0;
09
0?
0@
1A
17
14
1%
#825000
1$
1"
13
11
1:
19
#830000
0$
1#
03
12
1;
09
#835000
1$
13
19
#840000
0$
0#
0"
0!
03
02
01
00
08
0:
0;
09
1=
1?
#845000
1$
13
19
1<
1@
0A
0>
06
07
05
04
0&
0%
#850000
0$
1#
03
12
1;
09
0<
0=
1>
16
15
1&
#855000
1$
1"
13
11
1:
19
1<
1=
0?
0@
1A
0>
06
17
05
14
0&
1%
#860000
0$
0#
1!
03
02
10
18
0;
09
0<
0=
1>
16
15
1&
#865000
1$
13
19
#870000
0$
1#
0"
03
12
01
0:
1;
09
#875000
1$
13
19
#880000
0$
0#
0!
03
02
00
08
0;
09
1=
1?
#885000
1$
1"
13
11
1:
19
1<
0?
0>
06
05
0&
#890000
0$
1#
03
12
1;
09
#895000
1$
13
19
#900000
0$
0#
0"
1!
03
02
01
10
18
0:
0;
09
0<
0=
1>
16
15
1&
#905000
1$
13
19
#910000
0$
1#
03
12
1;
09
#915000
1$
1"
13
11
1:
19
#920000
0$
0#
0!
03
02
00
08
0;
09
1<
1=
0>
06
05
0&
#925000
1$
13
19
#930000
0$
1#
0"
03
12
01
0:
1;
09
0<
0=
1?
1@
0A
1>
16
07
15
04
1&
0%
#935000
1$
13
19
#940000
0$
0#
1!
03
02
10
18
0;
09
0?
0@
1A
17
14
1%
#945000
1$
1"
13
11
1:
19
#950000
0$
1#
03
12
1;
09
#955000
1$
13
19
#960000
0$
0#
0"
0!
03
02
01
00
08
0:
0;
09
1=
1?
#965000
1$
13
19
1<
1@
0A
0>
06
07
05
04
0&
0%
#970000
0$
1#
03
12
1;
09
0<
0=
1>
16
15
1&
#975000
1$
1"
13
11
1:
19
1<
1=
0?
0@
1A
0>
06
17
05
14
0&
1%
#980000
0$
0#
1!
03
02
10
18
0;
09
0<
0=
1>
16
15
1&
#985000
1$
13
19
#990000
0$
1#
0"
03
12
01
0:
1;
09
#995000
1$
13
19
