1 ano/2 semestre/LSD/aula 2/parte 2/simulation/qsim/Mux2_1Demo.msim.vcd
$comment
	File created using the following command:
		vcd file Mux2_1Demo.msim.vcd -direction
$end
$date
	Fri Feb 23 14:02:50 2018
$end
$version
	ModelSim Version 10.5b
$end
$timescale
	1ps
$end

$scope module mux2_1_vhd_vec_tst $end
$var wire 1 ! input0 $end
$var wire 1 " input1 $end
$var wire 1 # muxOut $end
$var wire 1 $ sel $end

$scope module i1 $end
$var wire 1 % gnd $end
$var wire 1 & vcc $end
$var wire 1 ' unknown $end
$var wire 1 ( devoe $end
$var wire 1 ) devclrn $end
$var wire 1 * devpor $end
$var wire 1 + ww_devoe $end
$var wire 1 , ww_devclrn $end
$var wire 1 - ww_devpor $end
$var wire 1 . ww_sel $end
$var wire 1 / ww_input0 $end
$var wire 1 0 ww_input1 $end
$var wire 1 1 ww_muxOut $end
$var wire 1 2 \muxOut~output_o\ $end
$var wire 1 3 \input0~input_o\ $end
$var wire 1 4 \sel~input_o\ $end
$var wire 1 5 \input1~input_o\ $end
$var wire 1 6 \muxOut~0_combout\ $end
$upscope $end
$upscope $end
$enddefinitions $end
#0
$dumpvars
0!
0"
0#
0$
0%
1&
x'
1(
1)
1*
1+
1,
1-
0.
0/
00
01
02
03
04
05
06
$end
#5000
1!
1/
13
16
12
11
1#
#10000
0!
1"
0/
10
15
03
06
02
01
0#
#15000
1!
1/
13
16
12
11
1#
#20000
0!
0"
0/
00
05
03
06
02
01
0#
#25000
1!
1/
13
16
12
11
1#
#30000
0!
1"
0/
10
15
03
06
02
01
0#
#35000
1!
1/
13
16
12
11
1#
#40000
0!
0"
0/
00
05
03
06
02
01
0#
#45000
1!
1/
13
16
12
11
1#
#50000
0!
1"
1$
0/
10
1.
14
15
03
#55000
1!
1/
13
#60000
0!
0"
0/
00
05
03
06
02
01
0#
#65000
1!
1/
13
#70000
0!
1"
0/
10
15
03
16
12
11
1#
#75000
1!
1/
13
#80000
0!
0"
0/
00
05
03
06
02
01
0#
#85000
1!
1/
13
#90000
0!
1"
0/
10
15
03
16
12
11
1#
#95000
1!
1/
13
#100000
0!
0"
0$
0/
00
0.
04
05
03
06
02
01
0#
#105000
1!
1/
13
16
12
11
1#
#110000
0!
1"
0/
10
15
03
06
02
01
0#
#115000
1!
1/
13
16
12
11
1#
#120000
0!
0"
0/
00
05
03
06
02
01
0#
#125000
1!
1/
13
16
12
11
1#
#130000
0!
1"
0/
10
15
03
06
02
01
0#
#135000
1!
1/
13
16
12
11
1#
#140000
0!
0"
0/
00
05
03
06
02
01
0#
#145000
1!
1/
13
16
12
11
1#
#150000
0!
1"
1$
0/
10
1.
14
15
03
#155000
1!
1/
13
#160000
0!
0"
0/
00
05
03
06
02
01
0#
#165000
1!
1/
13
#170000
0!
1"
0/
10
15
03
16
12
11
1#
#175000
1!
1/
13
#180000
0!
0"
0/
00
05
03
06
02
01
0#
#185000
1!
1/
13
#190000
0!
1"
0/
10
15
03
16
12
11
1#
#195000
1!
1/
13
#200000
0!
0"
0$
0/
00
0.
04
05
03
06
02
01
0#
#205000
1!
1/
13
16
12
11
1#
#210000
0!
1"
0/
10
15
03
06
02
01
0#
#215000
1!
1/
13
16
12
11
1#
#220000
0!
0"
0/
00
05
03
06
02
01
0#
#225000
1!
1/
13
16
12
11
1#
#230000
0!
1"
0/
10
15
03
06
02
01
0#
#235000
1!
1/
13
16
12
11
1#
#240000
0!
0"
0/
00
05
03
06
02
01
0#
#245000
1!
1/
13
16
12
11
1#
#250000
0!
1"
1$
0/
10
1.
14
15
03
#255000
1!
1/
13
#260000
0!
0"
0/
00
05
03
06
02
01
0#
#265000
1!
1/
13
#270000
0!
1"
0/
10
15
03
16
12
11
1#
#275000
1!
1/
13
#280000
0!
0"
0/
00
05
03
06
02
01
0#
#285000
1!
1/
13
#290000
0!
1"
0/
10
15
03
16
12
11
1#
#295000
1!
1/
13
#300000
0!
0"
0$
0/
00
0.
04
05
03
06
02
01
0#
#305000
1!
1/
13
16
12
11
1#
#310000
0!
1"
0/
10
15
03
06
02
01
0#
#315000
1!
1/
13
16
12
11
1#
#320000
0!
0"
0/
00
05
03
06
02
01
0#
#325000
1!
1/
13
16
12
11
1#
#330000
0!
1"
0/
10
15
03
06
02
01
0#
#335000
1!
1/
13
16
12
11
1#
#340000
0!
0"
0/
00
05
03
06
02
01
0#
#345000
1!
1/
13
16
12
11
1#
#350000
0!
1"
1$
0/
10
1.
14
15
03
#355000
1!
1/
13
#360000
0!
0"
0/
00
05
03
06
02
01
0#
#365000
1!
1/
13
#370000
0!
1"
0/
10
15
03
16
12
11
1#
#375000
1!
1/
13
#380000
0!
0"
0/
00
05
03
06
02
01
0#
#385000
1!
1/
13
#390000
0!
1"
0/
10
15
03
16
12
11
1#
#395000
1!
1/
13
#400000
0!
0"
0$
0/
00
0.
04
05
03
06
02
01
0#
#405000
1!
1/
13
16
12
11
1#
#410000
0!
1"
0/
10
15
03
06
02
01
0#
#415000
1!
1/
13
16
12
11
1#
#420000
0!
0"
0/
00
05
03
06
02
01
0#
#425000
1!
1/
13
16
12
11
1#
#430000
0!
1"
0/
10
15
03
06
02
01
0#
#435000
1!
1/
13
16
12
11
1#
#440000
0!
0"
0/
00
05
03
06
02
01
0#
#445000
1!
1/
13
16
12
11
1#
#450000
0!
1"
1$
0/
10
1.
14
15
03
#455000
1!
1/
13
#460000
0!
0"
0/
00
05
03
06
02
01
0#
#465000
1!
1/
13
#470000
0!
1"
0/
10
15
03
16
12
11
1#
#475000
1!
1/
13
#480000
0!
0"
0/
00
05
03
06
02
01
0#
#485000
1!
1/
13
#490000
0!
1"
0/
10
15
03
16
12
11
1#
#495000
1!
1/
13
#500000
0!
0"
0$
0/
00
0.
04
05
03
06
02
01
0#
#505000
1!
1/
13
16
12
11
1#
#510000
0!
1"
0/
10
15
03
06
02
01
0#
#515000
1!
1/
13
16
12
11
1#
#520000
0!
0"
0/
00
05
03
06
02
01
0#
#525000
1!
1/
13
16
12
11
1#
#530000
0!
1"
0/
10
15
03
06
02
01
0#
#535000
1!
1/
13
16
12
11
1#
#540000
0!
0"
0/
00
05
03
06
02
01
0#
#545000
1!
1/
13
16
12
11
1#
#550000
0!
1"
1$
0/
10
1.
14
15
03
#555000
1!
1/
13
#560000
0!
0"
0/
00
05
03
06
02
01
0#
#565000
1!
1/
13
#570000
0!
1"
0/
10
15
03
16
12
11
1#
#575000
1!
1/
13
#580000
0!
0"
0/
00
05
03
06
02
01
0#
#585000
1!
1/
13
#590000
0!
1"
0/
10
15
03
16
12
11
1#
#595000
1!
1/
13
#600000
0!
0"
0$
0/
00
0.
04
05
03
06
02
01
0#
#605000
1!
1/
13
16
12
11
1#
#610000
0!
1"
0/
10
15
03
06
02
01
0#
#615000
1!
1/
13
16
12
11
1#
#620000
0!
0"
0/
00
05
03
06
02
01
0#
#625000
1!
1/
13
16
12
11
1#
#630000
0!
1"
0/
10
15
03
06
02
01
0#
#635000
1!
1/
13
16
12
11
1#
#640000
0!
0"
0/
00
05
03
06
02
01
0#
#645000
1!
1/
13
16
12
11
1#
#650000
0!
1"
1$
0/
10
1.
14
15
03
#655000
1!
1/
13
#660000
0!
0"
0/
00
05
03
06
02
01
0#
#665000
1!
1/
13
#670000
0!
1"
0/
10
15
03
16
12
11
1#
#675000
1!
1/
13
#680000
0!
0"
0/
00
05
03
06
02
01
0#
#685000
1!
1/
13
#690000
0!
1"
0/
10
15
03
16
12
11
1#
#695000
1!
1/
13
#700000
0!
0"
0$
0/
00
0.
04
05
03
06
02
01
0#
#705000
1!
1/
13
16
12
11
1#
#710000
0!
1"
0/
10
15
03
06
02
01
0#
#715000
1!
1/
13
16
12
11
1#
#720000
0!
0"
0/
00
05
03
06
02
01
0#
#725000
1!
1/
13
16
12
11
1#
#730000
0!
1"
0/
10
15
03
06
02
01
0#
#735000
1!
1/
13
16
12
11
1#
#740000
0!
0"
0/
00
05
03
06
02
01
0#
#745000
1!
1/
13
16
12
11
1#
#750000
0!
1"
1$
0/
10
1.
14
15
03
#755000
1!
1/
13
#760000
0!
0"
0/
00
05
03
06
02
01
0#
#765000
1!
1/
13
#770000
0!
1"
0/
10
15
03
16
12
11
1#
#775000
1!
1/
13
#780000
0!
0"
0/
00
05
03
06
02
01
0#
#785000
1!
1/
13
#790000
0!
1"
0/
10
15
03
16
12
11
1#
#795000
1!
1/
13
#800000
0!
0"
0$
0/
00
0.
04
05
03
06
02
01
0#
#805000
1!
1/
13
16
12
11
1#
#810000
0!
1"
0/
10
15
03
06
02
01
0#
#815000
1!
1/
13
16
12
11
1#
#820000
0!
0"
0/
00
05
03
06
02
01
0#
#825000
1!
1/
13
16
12
11
1#
#830000
0!
1"
0/
10
15
03
06
02
01
0#
#835000
1!
1/
13
16
12
11
1#
#840000
0!
0"
0/
00
05
03
06
02
01
0#
#845000
1!
1/
13
16
12
11
1#
#850000
0!
1"
1$
0/
10
1.
14
15
03
#855000
1!
1/
13
#860000
0!
0"
0/
00
05
03
06
02
01
0#
#865000
1!
1/
13
#870000
0!
1"
0/
10
15
03
16
12
11
1#
#875000
1!
1/
13
#880000
0!
0"
0/
00
05
03
06
02
01
0#
#885000
1!
1/
13
#890000
0!
1"
0/
10
15
03
16
12
11
1#
#895000
1!
1/
13
#900000
0!
0"
0$
0/
00
0.
04
05
03
06
02
01
0#
#905000
1!
1/
13
16
12
11
1#
#910000
0!
1"
0/
10
15
03
06
02
01
0#
#915000
1!
1/
13
16
12
11
1#
#920000
0!
0"
0/
00
05
03
06
02
01
0#
#925000
1!
1/
13
16
12
11
1#
#930000
0!
1"
0/
10
15
03
06
02
01
0#
#935000
1!
1/
13
16
12
11
1#
#940000
0!
0"
0/
00
05
03
06
02
01
0#
#945000
1!
1/
13
16
12
11
1#
#950000
0!
1"
1$
0/
10
1.
14
15
03
#955000
1!
1/
13
#960000
0!
0"
0/
00
05
03
06
02
01
0#
#965000
1!
1/
13
#970000
0!
1"
0/
10
15
03
16
12
11
1#
#975000
1!
1/
13
#980000
0!
0"
0/
00
05
03
06
02
01
0#
#985000
1!
1/
13
#990000
0!
1"
0/
10
15
03
16
12
11
1#
#995000
1!
1/
13
