1 ano/2 semestre/LSD/aula 1/parte 2 - not working/simulation/qsim/VHDLDemo.msim.vcd
$comment
	File created using the following command:
		vcd file VHDLDemo.msim.vcd -direction
$end
$date
	Wed Feb 21 10:52:10 2018
$end
$version
	ModelSim Version 10.5b
$end
$timescale
	1ps
$end

$scope module and2gate_vhd_vec_tst $end
$var wire 1 ! inPort0 $end
$var wire 1 " inPort1 $end
$var wire 1 # outPort $end

$scope module i1 $end
$var wire 1 $ gnd $end
$var wire 1 % vcc $end
$var wire 1 & unknown $end
$var wire 1 ' devoe $end
$var wire 1 ( devclrn $end
$var wire 1 ) devpor $end
$var wire 1 * ww_devoe $end
$var wire 1 + ww_devclrn $end
$var wire 1 , ww_devpor $end
$var wire 1 - ww_inPort0 $end
$var wire 1 . ww_inPort1 $end
$var wire 1 / ww_outPort $end
$var wire 1 0 \outPort~output_o\ $end
$var wire 1 1 \inPort0~input_o\ $end
$var wire 1 2 \inPort1~input_o\ $end
$var wire 1 3 \outPort~0_combout\ $end
$upscope $end
$upscope $end
$enddefinitions $end
#0
$dumpvars
0!
0"
0#
0$
1%
x&
1'
1(
1)
1*
1+
1,
0-
0.
0/
00
01
02
03
$end
#50000
1!
1-
11
#100000
0!
1"
0-
1.
12
01
#150000
1!
1-
11
13
10
1/
1#
#200000
0!
0"
0-
0.
02
01
03
00
0/
0#
#250000
1!
1-
11
#300000
0!
1"
0-
1.
12
01
#350000
1!
1-
11
13
10
1/
1#
#400000
0!
0"
0-
0.
02
01
03
00
0/
0#
#450000
1!
1-
11
#500000
0!
1"
0-
1.
12
01
#550000
1!
1-
11
13
10
1/
1#
#600000
0!
0"
0-
0.
02
01
03
00
0/
0#
#650000
1!
1-
11
#700000
0!
1"
0-
1.
12
01
#750000
1!
1-
11
13
10
1/
1#
#800000
0!
0"
0-
0.
02
01
03
00
0/
0#
#850000
1!
1-
11
#900000
0!
1"
0-
1.
12
01
#950000
1!
1-
11
13
10
1/
1#
